{
    "lintOptions": {
      "typeCheck": true
    },
    "extends": "tslint:all",
    "rules": {
      "cyclomatic-complexity": false,
      "newline-before-return": false,
      "no-parameter-properties": false,
      "no-parameter-reassignment": false,
      "no-unused-variable": false,
      
      "member-access": true,
      "only-arrow-functions": [
          false,
          "allow-declarations",
          "allow-named-functions"
      ],
      "ordered-imports": [false, {
        "import-sources-order": "any",
        "named-imports-order": "case-insensitive"
      }],
      "completed-docs": false,
      "no-any": false,
      "no-magic-numbers": false,
      "no-non-null-assertion": false,
      "no-null-keyword": false,
      "no-require-imports": false,
      "no-unbound-method": false,
      "no-unnecessary-qualifier": false,
      "no-use-before-declare": false,
      "no-void-expression": false,
      "prefer-function-over-method": false,
      "strict-type-predicates": false,
      "triple-equals": [true, "allow-undefined-check"],
      "typedef": false,
  
      "ban": [true,
        ["describe", "only"],
        ["it", "only"]
      ],
  
      "interface-name": false,
      "max-classes-per-file": false,
      "max-line-length": [true, 140],
      "member-ordering": [true,
        "public-before-private",
        "static-before-instance",
        "variables-before-functions"
      ],
      "no-console": {
        "options": ["log"]
      },
      "no-switch-case-fall-through": true,
      "strict-boolean-expressions": [true, "allow-boolean-or-undefined"],
      "switch-default": false,
      "variable-name": [true,
        "ban-keywords",
        "check-format",
        "allow-leading-underscore",
        "allow-pascal-case"
      ],
      "object-literal-sort-keys": false,
      "comment-format": [false, "check-space", "check-uppercase"],
      "align": false,
      "no-shadowed-variable": false,
      "no-var-requires": false,
      "no-redundant-jsdoc": false,
      "promise-function-async": false,
      "await-promise": false,
      "no-floating-promises": false,
      "no-for-in-array": false,
      "no-inferred-empty-object-type": false,
      "no-unsafe-any": false,
      "restrict-plus-operands": false,
      "strict-boolean-expressions": false,
      "use-default-type-parameter": false,
      "deprecation": false,
      "match-default-export-name": false,
      "no-boolean-literal-compare": false,
      "no-unnecessary-type-assertion": false,
      "return-undefined": false
    }
  }